<svg width="14" height="15" viewBox="0 0 14 15" version="1.1" xmlns="http://www.w3.org/2000/svg" xmlns:xlink="http://www.w3.org/1999/xlink">
<title>income</title>
<desc>Created using Figma</desc>
<g id="Canvas" transform="translate(-6275 -306)">
<rect x="6275" y="306" width="14" height="15" fill="transparent"/>
<clipPath id="clip-0" clip-rule="evenodd">
<path d="M 5880 -513L 7320 -513L 7320 511L 5880 511L 5880 -513Z" fill="transparent"/>
</clipPath>
<g id="P2. Tablero" clip-path="url(#clip-0)">
<path d="M 5880 -513L 7320 -513L 7320 511L 5880 511L 5880 -513Z" fill="transparent"/>
<g id="Group">
<g id="card/currency state">
<g id="Rectangle" filter="url(#filter0_d)">
<use xlink:href="#path0_fill" transform="translate(5976 291)" fill="transparent"/>
</g>
<g id="variation %">
<g id="ic/transaction/income">
<g id="Vector">
<use xlink:href="#path1_fill" transform="matrix(6.12323e-17 1 -1 6.12323e-17 6287.95 306.824)" fill="#37CC71"/>
<use xlink:href="#path2_fill" transform="matrix(6.12323e-17 1 -1 6.12323e-17 6287.95 306.824)" fill="#37CC71"/>
</g>
</g>
</g>
</g>
</g>
</g>
</g>
<defs>
<filter id="filter0_d" filterUnits="userSpaceOnUse" x="5970" y="285" width="396" height="92" color-interpolation-filters="sRGB">
<feFlood flood-opacity="0" result="BackgroundImageFix"/>
<feColorMatrix in="SourceAlpha" type="matrix" values="0 0 0 0 0 0 0 0 0 0 0 0 0 0 0 0 0 0 255 0"/>
<feOffset dx="0" dy="0"/>
<feGaussianBlur stdDeviation="3"/>
<feColorMatrix type="matrix" values="0 0 0 0 0.133333 0 0 0 0 0.694118 0 0 0 0 0.862745 0 0 0 1 0"/>
<feBlend mode="normal" in2="BackgroundImageFix" result="effect1_dropShadow"/>
<feBlend mode="normal" in="SourceGraphic" in2="effect1_dropShadow" result="shape"/>
</filter>
<path id="path0_fill" d="M 0 15C 0 6.71573 6.71573 0 15 0L 369 0C 377.284 0 384 6.71573 384 15L 384 65C 384 73.2843 377.284 80 369 80L 15 80C 6.71573 80 0 73.2843 0 65L 0 15Z"/>
<path id="path1_fill" d="M 0 6.00931C 3.95076e-17 5.3641 0.376936 4.71889 1.02309 4.27221L 6.40771 0.500216C 7.10771 0.00390144 7.80767 -0.144999 8.45382 0.15279C 9.04613 0.400947 9.31534 0.996528 9.31534 1.69137L 9.31534 2.684L 10.7692 2.684C 12.4923 2.684 14 4.07367 14 5.61225C 14 6.85303 13.3 7.89531 12.1692 8.29236C 11.9 8.39162 11.5769 8.29236 11.4692 8.0442C 11.3615 7.79604 11.5231 7.49825 11.7923 7.39898C 12.4923 7.15083 12.9231 6.45598 12.9231 5.61225C 12.9231 4.61962 11.9 3.67662 10.7692 3.67662L 8.83078 3.67662C 8.50771 3.67662 8.18459 3.67662 8.18459 3.37883L 8.18459 1.69137C 8.18459 1.49284 8.18459 1.14543 7.91536 1.04616C 7.69997 0.897271 7.32308 0.99653 7 1.24469L 1.66922 5.01668C 0.969218 5.51299 0.915385 6.35672 1.61538 6.85303L 7.05383 10.625C 7.37691 10.8732 7.69997 10.9724 7.91536 10.8732C 8.13074 10.7739 8.18459 10.5754 8.18459 10.228L 8.18459 7.84566C 8.18459 7.54787 8.39997 7.34935 8.72305 7.34935C 9.04613 7.34935 9.26151 7.54787 9.26151 7.84566L 9.26151 10.228C 9.26151 10.9228 8.99229 11.5184 8.39999 11.7666C 7.75383 12.0147 6.99996 11.9154 6.35381 11.4191L 0.915358 7.64714C 0.323051 7.25009 -3.95076e-17 6.65452 0 6.00931Z"/>
<path id="path2_fill" d="M 10.123 7.59751C 10.2846 7.59751 10.3923 7.64715 10.5 7.74641C 10.6077 7.84567 10.6615 7.94493 10.6615 8.09382C 10.6615 8.24271 10.6077 8.34198 10.5 8.44125C 10.3923 8.54051 10.2846 8.59013 10.123 8.59013C 9.9615 8.59013 9.85383 8.54051 9.74614 8.44125C 9.53076 8.24272 9.53076 7.94494 9.74614 7.74641C 9.85383 7.64715 9.9615 7.59751 10.123 7.59751Z"/>
</defs>
</svg>
