<svg width="28" height="28" viewBox="0 0 28 28" version="1.1" xmlns="http://www.w3.org/2000/svg" xmlns:xlink="http://www.w3.org/1999/xlink">
<title>bitcoin</title>
<desc>Created using Figma</desc>
<g id="Canvas" transform="translate(-6858 293)">
<g id="ic/currency/bitcoin">
<g id="XMLID 44">
<use xlink:href="#path0_fill" transform="matrix(1 2.67189e-24 -2.67189e-24 1 6858 -293)"/>
</g>
</g>
</g>
<defs>
<path id="path0_fill" d="M 21 1.86667C 23.1 3.03333 24.7333 4.9 26.1333 7C 27.3 9.1 28 11.4333 28 14C 28 16.5667 27.3 18.9 26.1333 21C 24.9667 23.1 23.3333 24.7333 21 26.1333C 18.9 27.3 16.5667 28 14 28C 11.4333 28 9.1 27.3 7 26.1333C 4.9 24.9667 3.26667 23.1 1.86667 21C 0.7 18.9 0 16.5667 0 14C 0 11.4333 0.7 9.1 1.86667 7C 3.26667 4.9 4.9 3.26667 7 1.86667C 9.1 0.7 11.4333 0 14 0C 16.5667 0 18.9 0.7 21 1.86667ZM 20.7667 17.9667C 21 17.5 21 17.0333 21 16.3333C 21 15.8667 21 15.4 20.7667 14.9333C 20.5333 14.4667 20.3 14.2333 20.0667 14C 19.8333 13.7667 19.3667 13.5333 19.1333 13.5333L 18.6667 13.3C 19.1333 13.0667 19.3667 12.8333 19.6 12.6C 20.1127 12.0873 20.2222 12.0556 20.2222 10.5C 20.2222 8.55556 18.6667 8.16667 17.7333 7.93333C 16.966 7.74149 16.5667 7.7 15.8667 7.7L 15.8667 4.9L 14.2333 4.9L 14.2333 7.7L 12.8333 7.7L 12.8333 4.9L 11.2 4.9L 11.2 7.7L 7.7 7.7L 7.7 9.56667L 8.63333 9.56667C 9.1 9.56667 9.33333 9.56667 9.56667 9.8L 9.8 10.0333C 9.8 10.0333 9.8 10.2667 9.8 10.5L 9.8 17.7333C 9.8 18.2095 9.8 18.4333 9.33333 18.4333C 9.33333 18.4333 9.1 18.4333 8.86667 18.4333L 8.16667 18.4333L 7.7 20.5333L 11.2 20.5333L 11.2 23.3333L 12.8333 23.3333L 12.8333 20.5333L 14.2333 20.5333L 14.2333 23.3333L 15.8667 23.3333L 15.8667 20.3C 16.3333 20.3 17.0333 20.3 17.0333 20.3L 18.2 20.0667C 18.2 20.0667 19.3667 19.6 19.6 19.3667C 20.0667 19.1333 20.5333 18.6667 20.7667 17.9667ZM 12.8333 12.8333L 12.8333 9.56667C 13.3 9.56667 13.5333 9.56667 14 9.56667C 14.4667 9.56667 14.7 9.56667 14.9333 9.56667C 15.1667 9.56667 15.7111 9.6343 15.9444 9.72222C 16.1778 9.81014 16.4111 9.9344 16.5667 10.1111C 16.7222 10.2878 16.8 10.7333 16.8 11.2C 16.8 11.9 16.5667 12.1333 16.1 12.6C 15.6333 12.8333 15.1667 12.8333 14.2333 12.8333C 14 12.8333 13.5333 12.8333 12.8333 12.8333ZM 17.7333 16.3333C 17.7333 16.8904 17.5121 17.4879 17.1111 17.8889C 16.7038 18.2962 15.2829 18.4333 14.7 18.4333C 14.4667 18.4333 14 18.4333 13.5333 18.4333L 12.8333 18.4333L 12.8333 14.7C 13.5333 14.7 14.2333 14.7 14.7 14.7C 15.1667 14.7 15.6333 14.6944 15.9444 14.7778C 16.5718 14.9459 17.7333 15.6194 17.7333 16.3333Z"/>
</defs>
</svg>
