<svg width="179" height="148" viewBox="0 0 179 148" version="1.1" xmlns="http://www.w3.org/2000/svg" xmlns:xlink="http://www.w3.org/1999/xlink">
<title>Mask Group</title>
<desc>Created using Figma</desc>
<g id="Canvas" transform="translate(-8853 -363)">
<g id="Mask Group">
<mask id="mask0_alpha" mask-type="alpha">
<g id="Rectangle">
<use xlink:href="#path0_fill" transform="translate(8853 363)" fill="#C4C4C4"/>
</g>
</mask>
<g id="Group" opacity="0.35" mask="url(#mask0_alpha)">
<g id="Polygon" opacity="0.35">
<use xlink:href="#path1_fill" transform="translate(8894.34 396.132)" fill="url(#paint1_linear)"/>
</g>
<g id="Polygon" opacity="0.35">
<use xlink:href="#path2_fill" transform="translate(8860.86 379.984)" fill="url(#paint2_linear)"/>
</g>
<g id="Polygon" opacity="0.35">
<use xlink:href="#path3_fill" transform="translate(8908.64 363.607)" fill="url(#paint3_linear)"/>
</g>
<g id="Polygon" opacity="0.35">
<use xlink:href="#path3_fill" transform="translate(8852.7 441.853)" fill="url(#paint4_linear)"/>
</g>
</g>
</g>
</g>
<defs>
<linearGradient id="paint1_linear" x1="0" y1="0" x2="1" y2="0" gradientUnits="userSpaceOnUse" gradientTransform="matrix(1.00076e-14 146.032 -163.437 8.94187e-15 163.437 -8.94187e-15)">
<stop offset="0" stop-color="#8C48AB"/>
<stop offset="1" stop-color="#FFFFFF"/>
</linearGradient>
<linearGradient id="paint2_linear" x1="0" y1="0" x2="1" y2="0" gradientUnits="userSpaceOnUse" gradientTransform="matrix(5.23961e-15 76.4262 -85.5693 4.67976e-15 85.5693 -4.67976e-15)">
<stop offset="0" stop-color="#8C48AB"/>
<stop offset="1" stop-color="#FFFFFF"/>
</linearGradient>
<linearGradient id="paint3_linear" x1="0" y1="0" x2="1" y2="0" gradientUnits="userSpaceOnUse" gradientTransform="matrix(3.75844e-15 54.5902 -61.3801 3.34268e-15 61.3801 -3.34268e-15)">
<stop offset="0" stop-color="#8C48AB"/>
<stop offset="1" stop-color="#FFFFFF"/>
</linearGradient>
<linearGradient id="paint4_linear" x1="0" y1="0" x2="1" y2="0" gradientUnits="userSpaceOnUse" gradientTransform="matrix(3.75844e-15 54.5902 -61.3801 3.34268e-15 61.3801 -3.34268e-15)">
<stop offset="0" stop-color="#8C48AB"/>
<stop offset="1" stop-color="#FFFFFF"/>
</linearGradient>
<path id="path0_fill" d="M 0 0L 179 0L 179 148L 0 148L 0 0Z"/>
<path id="path1_fill" d="M 161.412 65.4339C 164.112 70.1256 164.112 75.9061 161.412 80.5978L 128.112 138.45C 125.411 143.142 120.42 146.032 115.019 146.032L 48.4184 146.032C 43.0172 146.032 38.0263 143.142 35.3256 138.45L 2.02546 80.5978C -0.675154 75.9061 -0.675154 70.1256 2.02546 65.4339L 35.3256 7.58197C 38.0263 2.89023 43.0172 1.15729e-14 48.4184 8.6197e-15L 115.019 0C 120.42 -2.95316e-15 125.411 2.89023 128.112 7.58197L 161.412 65.4339Z"/>
<path id="path2_fill" d="M 84.5088 34.2451C 85.9227 36.7005 85.9227 39.7257 84.5088 42.1812L 67.0741 72.4582C 65.6602 74.9136 63.0471 76.4262 60.2193 76.4262L 25.35 76.4262C 22.5221 76.4262 19.909 74.9136 18.4951 72.4582L 1.06045 42.1812C -0.353484 39.7257 -0.353484 36.7005 1.06045 34.2451L 18.4951 3.96805C 19.909 1.51261 22.5221 3.70054e-15 25.35 2.15492e-15L 60.2193 0C 63.0471 -1.54562e-15 65.6602 1.51261 67.0741 3.96805L 84.5088 34.2451Z"/>
<path id="path3_fill" d="M 60.6194 24.4608C 61.6336 26.2146 61.6336 28.3755 60.6194 30.1294L 48.1133 51.7558C 47.099 53.5097 45.2246 54.5902 43.1962 54.5902L 18.1839 54.5902C 16.1554 54.5902 14.281 53.5097 13.2668 51.7558L 0.760677 30.1294C -0.253559 28.3755 -0.253559 26.2146 0.760677 24.4608L 13.2668 2.83432C 14.281 1.08044 16.1554 1.10454e-15 18.1839 0L 43.1962 0C 45.2246 -1.10454e-15 47.099 1.08044 48.1133 2.83432L 60.6194 24.4608Z"/>
</defs>
</svg>
