<svg width="299" height="200" viewBox="0 0 299 200" version="1.1" xmlns="http://www.w3.org/2000/svg" xmlns:xlink="http://www.w3.org/1999/xlink">
<title>VBCWallet logo</title>
<desc>Created using Figma</desc>
<g id="Canvas" transform="translate(-624 280)">
<g id="VBCWallet logo">
<g id="Group 4">
<g id="Wallet">
<use xlink:href="#path0_fill" transform="translate(893.026 -95.6757)" fill="#B6B8BE"/>
</g>
<g id="Wallet">
<use xlink:href="#path1_fill" transform="translate(698.592 -95.6757)" fill="#B6B8BE"/>
</g>
<g id="Wallet">
<use xlink:href="#path2_fill" transform="translate(642.555 -95.6757)" fill="#B6B8BE"/>
</g>
<g id="Wallet">
<use xlink:href="#path3_fill" transform="translate(751.51 -95.6757)" fill="#B6B8BE"/>
</g>
<g id="Wallet">
<use xlink:href="#path4_fill" transform="translate(798.575 -95.6757)" fill="#B6B8BE"/>
</g>
<g id="Wallet">
<use xlink:href="#path5_fill" transform="translate(845.639 -95.6757)" fill="#B6B8BE"/>
</g>
</g>
<g id="Subtract">
<use xlink:href="#path6_fill" transform="translate(624 -280)" fill="url(#paint6_linear)"/>
</g>
</g>
</g>
<defs>
<linearGradient id="paint6_linear" x1="0" y1="0" x2="1" y2="0" gradientUnits="userSpaceOnUse" gradientTransform="matrix(70.922 38.8472 -207.566 418.203 193.251 -182.269)">
<stop offset="0" stop-color="#8C48AB"/>
<stop offset="1" stop-color="#22B1DC"/>
</linearGradient>
<path id="path0_fill" d="M 11.2954 1.67379L 6.50715 1.67379L 6.50715 15.1929L 4.78828 15.1929L 4.78828 1.67379L 0 1.67379L 0 0L 11.2954 0L 11.2954 1.67379Z"/>
<path id="path1_fill" d="M 6.38436 0L 8.00092 0L 14.1602 15.1929L 12.1548 15.1929L 10.6815 11.459L 3.43773 11.459L 1.94396 15.1929L 0 15.1929L 6.38436 0ZM 7.16194 2.31755L 7.12102 2.31755L 4.113 9.78523L 10.0267 9.78523L 7.16194 2.31755Z"/>
<path id="path2_fill" d="M 0 0L 1.90303 0L 5.19753 12.6178L 5.23845 12.6178L 8.79896 0L 10.7225 0L 14.2625 12.6178L 14.3034 12.6178L 17.6593 0L 19.46 0L 15.2038 15.1929L 13.3417 15.1929L 9.76071 2.31755L 9.71979 2.31755L 6.11835 15.1929L 4.23578 15.1929L 0 0Z"/>
<path id="path3_fill" d="M 0 0L 1.71887 0L 1.71887 13.5191L 8.34878 13.5191L 8.34878 15.1929L 0 15.1929L 0 0Z"/>
<path id="path4_fill" d="M 0 0L 1.71888 0L 1.71888 13.5191L 8.3488 13.5191L 8.3488 15.1929L 0 15.1929L 0 0Z"/>
<path id="path5_fill" d="M 0 0L 9.1059 0L 9.1059 1.67379L 1.71886 1.67379L 1.71886 6.43765L 8.6148 6.43765L 8.6148 8.11144L 1.71886 8.11144L 1.71886 13.5191L 9.47423 13.5191L 9.47423 15.1929L 0 15.1929L 0 0Z"/>
<path id="path6_fill" fill-rule="evenodd" d="M 118.53 0.077179L 118.53 10.2335L 126.635 10.2335C 127.386 8.02005 129.416 6.4343 131.801 6.4343C 134.827 6.4343 137.28 8.98572 137.28 12.133C 137.28 15.2804 134.827 17.8318 131.801 17.8318C 129.416 17.8318 127.386 16.246 126.635 14.0326L 118.53 14.0326L 118.53 23.9019L 140.214 23.8247L 140.214 0L 118.53 0.077179ZM 140.214 27.6238L 118.53 27.701L 118.53 37.1198L 126.635 37.1198C 127.386 34.9064 129.416 33.3206 131.801 33.3206C 134.827 33.3206 137.28 35.872 137.28 39.0194C 137.28 42.1667 134.827 44.7181 131.801 44.7181C 129.416 44.7181 127.386 43.1323 126.635 40.9189L 118.53 40.9189L 118.53 51.1223L 140.214 51.0451L 140.214 27.6238ZM 140.214 54.8443L 118.53 54.9215L 118.53 64.3402L 126.635 64.3402C 127.386 62.1268 129.416 60.5411 131.801 60.5411C 134.827 60.5411 137.28 63.0925 137.28 66.2398C 137.28 69.3871 134.827 71.9386 131.801 71.9386C 129.416 71.9386 127.386 70.3527 126.635 68.1394L 118.53 68.1394L 118.53 75.7442C 118.69 76.5273 118.881 77.2811 119.101 78.0066L 189.173 77.7572C 181.941 73.0631 173.61 70.5914 164.893 70.5914C 158.825 70.5914 148.333 72.9578 140.214 76.3625L 140.214 54.8443ZM 236.658 81.3873L 267.718 81.2767C 268.469 83.4901 270.499 85.0759 272.884 85.0759C 275.91 85.0759 278.363 82.5245 278.363 79.3772C 278.363 76.2299 275.91 73.6785 272.884 73.6785C 270.499 73.6785 268.469 75.2642 267.718 77.4776L 241.793 77.5698C 248.994 72.9532 257.278 70.4901 265.892 70.4901C 278.227 70.4901 289.888 75.5419 298.658 84.7362C 298.658 84.8076 298.706 84.8286 298.803 84.8703L 298.803 84.8705C 298.843 84.8878 298.891 84.9088 298.947 84.9382L 292.949 91.2265L 228.053 91.2265C 228.966 89.8581 229.95 88.5343 231.005 87.2621C 231.101 87.06 231.294 86.8579 231.487 86.6559C 231.535 86.6054 231.559 86.555 231.583 86.5045C 231.607 86.4539 231.631 86.4033 231.68 86.3528L 231.776 86.2517C 232.016 85.9996 232.233 85.7476 232.449 85.4956L 232.45 85.4952L 232.45 85.4948L 232.45 85.4944L 232.451 85.494C 232.667 85.2414 232.884 84.9887 233.125 84.7362C 234.256 83.5503 235.435 82.4334 236.658 81.3873ZM 194.205 81.5384L 120.634 81.8003C 122.335 85.1021 124.727 87.669 127.449 89.6638C 128.451 88.3042 130.028 87.4274 131.801 87.4274C 134.827 87.4274 137.28 89.9788 137.28 93.1262C 137.28 93.5585 137.234 93.9797 137.146 94.3845C 145.331 96.921 153.031 96.5576 153.031 96.5576C 153.031 96.5576 152.978 96.5322 152.88 96.4814C 152.958 96.4933 153.012 96.4855 153.04 96.4565C 153.714 95.7493 158.244 93.3244 164.893 93.3244C 171.447 93.3244 177.711 96.0524 182.337 100.902C 183.456 102.076 184.446 103.334 185.305 104.657L 209.182 104.572C 208.151 101.197 206.791 98.0034 205.15 95.0257L 195.152 95.0257C 194.4 97.2391 192.371 98.8249 189.985 98.8249C 186.96 98.8249 184.507 96.2735 184.507 93.1262C 184.507 89.9788 186.96 87.4274 189.985 87.4274C 192.371 87.4274 194.4 89.0132 195.152 91.2265L 202.829 91.2265C 201.543 89.3214 200.136 87.5248 198.624 85.8478L 197.564 84.7364C 196.485 83.6058 195.365 82.5394 194.205 81.5384ZM 205.308 95.0257C 206.95 97.9855 208.314 101.17 209.349 104.572L 216.762 104.545L 207.575 95.0257L 205.308 95.0257ZM 203.909 91.2265L 202.966 91.2265C 201.695 89.3619 200.307 87.6018 198.816 85.949L 203.909 91.2265ZM 225.762 95.0257C 224.122 98.0474 222.803 101.236 221.82 104.527L 245.752 104.442C 246.028 104.029 246.317 103.624 246.617 103.226C 246.906 102.822 247.195 102.518 247.485 102.215C 247.521 102.177 247.544 102.138 247.563 102.105C 247.595 102.052 247.618 102.013 247.677 102.013C 247.822 101.811 247.991 101.634 248.159 101.458C 248.328 101.281 248.497 101.104 248.641 100.902C 251.12 98.3025 254.071 96.3127 257.284 95.0257L 225.762 95.0257ZM 274.885 95.0257C 278.098 96.3127 281.048 98.3025 283.528 100.902L 283.624 101.003L 289.326 95.0257L 274.885 95.0257ZM 243.65 108.249L 220.843 108.33C 220.825 108.413 220.807 108.497 220.789 108.581L 230.689 118.85L 241.384 118.85C 241.407 115.127 242.183 111.535 243.65 108.249ZM 241.618 122.65L 234.351 122.65L 243.436 132.074L 244.665 132.07C 243.082 129.184 242.052 125.993 241.618 122.65ZM 247.209 135.86L 247.086 135.86L 248.352 137.174C 247.955 136.748 247.574 136.31 247.209 135.86ZM 243.327 132.075L 234.232 122.65L 211.399 122.65C 211.235 125.109 210.892 127.534 210.381 129.9L 212.578 132.184L 243.327 132.075ZM 216.221 135.97L 246.981 135.861L 248.833 137.78C 258.374 147.48 273.698 147.379 283.238 137.578L 291.02 145.737L 225.616 145.737L 216.221 135.97ZM 209.506 132.195C 209.722 131.368 209.918 130.535 210.092 129.697L 210.188 129.798C 210.719 127.448 211.079 125.061 211.258 122.65L 195.152 122.65C 194.4 124.863 192.371 126.449 189.985 126.449C 189.516 126.449 189.06 126.387 188.626 126.272C 188.063 128.351 187.247 130.371 186.177 132.278L 209.506 132.195ZM 183.571 136.087L 208.349 135.998C 207.169 139.385 205.621 142.653 203.704 145.737L 195.152 145.737C 194.4 143.523 192.371 141.938 189.985 141.938C 186.96 141.938 184.507 144.489 184.507 147.636C 184.507 150.784 186.96 153.335 189.985 153.335C 192.371 153.335 194.4 151.749 195.152 149.536L 201.082 149.536C 200.025 150.921 198.884 152.259 197.66 153.542C 195.656 155.642 193.516 157.51 191.269 159.146L 139.217 159.332L 132.939 153.212C 135.419 152.667 137.28 150.378 137.28 147.636C 137.28 144.489 134.827 141.938 131.801 141.938C 129.416 141.938 127.386 143.523 126.635 145.737L 125.271 145.737L 123.792 144.295L 122.417 145.737L 62.5217 145.737L 53.7576 136.549L 84.3003 136.44L 92.4211 144.954L 100.597 136.382L 132.215 136.269C 129.06 138.084 126.565 140.715 125.122 142.453C 126.578 140.71 129.103 138.071 132.295 136.269L 145.676 136.221C 146.264 136.582 146.856 136.999 147.45 137.477C 157.087 147.581 172.7 147.581 182.337 137.477C 182.767 137.026 183.178 136.562 183.571 136.087ZM 143.137 132.431C 141.948 131.138 140.609 129.699 138.969 127.98C 137.871 126.841 136.686 125.852 135.439 125.011C 134.472 125.906 133.197 126.449 131.801 126.449C 129.416 126.449 127.386 124.863 126.635 122.65L 116.818 122.65C 113.782 123.735 110.932 125.547 108.515 128.081L 104.233 132.57L 143.137 132.431ZM 80.6887 132.654L 71.1465 122.65L 40.5001 122.65L 50.146 132.762L 80.6887 132.654ZM 36.8763 118.85L 67.5227 118.85L 58.0406 108.909L 35.975 108.988C 35.2525 111.115 33.3505 112.662 31.0861 112.78L 36.8763 118.85ZM 25.3392 106.755C 25.5051 103.763 27.8904 101.39 30.8082 101.39C 33.1939 101.39 35.2231 102.976 35.975 105.189L 54.4291 105.123L 44.7977 95.0257L 14.1512 95.0257L 25.3392 106.755ZM 10.5274 91.2265L 41.1739 91.2265L 34.5907 84.3248C 33.6074 85.3012 32.2751 85.9008 30.8082 85.9008C 27.8322 85.9008 25.4102 83.432 25.3319 80.3557L 0 80.1897L 10.5274 91.2265ZM 28.9902 80.3797C 29.0762 81.3455 29.8573 82.1017 30.8082 82.1017C 31.2716 82.1017 31.6948 81.9221 32.0168 81.6263L 30.8392 80.3918L 28.9902 80.3797ZM 187.343 108.449C 188.272 110.584 188.91 112.823 189.256 115.101C 189.495 115.068 189.738 115.051 189.985 115.051C 192.371 115.051 194.4 116.637 195.152 118.85L 211.391 118.85C 211.376 115.374 210.985 111.866 210.193 108.368L 187.343 108.449ZM 210.337 108.367C 211.1 111.86 211.483 115.376 211.511 118.85L 230.566 118.85L 220.415 108.331L 210.337 108.367ZM 189.359 122.535C 189.508 121.329 189.576 120.115 189.563 118.902C 189.699 118.868 189.84 118.85 189.985 118.85C 190.994 118.85 191.812 119.701 191.812 120.75C 191.812 121.799 190.994 122.65 189.985 122.65C 189.765 122.65 189.554 122.609 189.359 122.535ZM 146.6 136.218C 147.515 137.215 148.438 138.21 149.474 139.296C 148.225 137.996 146.982 136.985 145.757 136.221L 146.6 136.218ZM 66.1454 149.536L 75.7047 159.558L 109.348 159.438L 118.793 149.536L 66.1454 149.536ZM 79.6257 163.343L 105.429 163.251C 97.8265 169.303 87.2585 169.333 79.6257 163.343ZM 145.091 163.11C 151.344 166.212 158.119 167.788 164.893 167.788C 171.789 167.788 178.683 166.181 185.028 162.968L 145.091 163.11ZM 245.259 162.753C 251.59 166.061 258.606 167.788 265.891 167.788C 278.227 167.788 289.792 162.736 298.562 153.643L 294.644 149.536L 229.27 149.536L 233.221 153.643C 235.106 155.619 237.12 157.399 239.242 158.976L 267.718 158.874C 268.469 156.661 270.499 155.075 272.884 155.075C 275.91 155.075 278.363 157.626 278.363 160.774C 278.363 163.921 275.91 166.473 272.884 166.473C 270.499 166.473 268.469 164.887 267.718 162.673L 245.259 162.753ZM 133.627 93.1094C 133.619 92.068 132.804 91.2265 131.801 91.2265C 131.354 91.2265 130.944 91.394 130.626 91.6719C 131.609 92.2069 132.614 92.684 133.627 93.1094ZM 131.801 14.0326C 130.793 14.0326 129.975 13.1821 129.975 12.133C 129.975 11.0839 130.793 10.2335 131.801 10.2335C 132.81 10.2335 133.627 11.0839 133.627 12.133C 133.627 13.1821 132.81 14.0326 131.801 14.0326ZM 131.801 40.9189C 130.793 40.9189 129.975 40.0685 129.975 39.0194C 129.975 37.9703 130.793 37.1198 131.801 37.1198C 132.81 37.1198 133.627 37.9703 133.627 39.0194C 133.627 40.0685 132.81 40.9189 131.801 40.9189ZM 131.801 68.1394C 130.793 68.1394 129.975 67.2889 129.975 66.2398C 129.975 65.1907 130.793 64.3402 131.801 64.3402C 132.81 64.3402 133.627 65.1907 133.627 66.2398C 133.627 67.2889 132.81 68.1394 131.801 68.1394ZM 272.884 77.4776C 271.876 77.4776 271.058 78.3281 271.058 79.3772C 271.058 80.4263 271.876 81.2767 272.884 81.2767C 273.893 81.2767 274.71 80.4263 274.71 79.3772C 274.71 78.3281 273.893 77.4776 272.884 77.4776ZM 30.8082 105.189C 31.8169 105.189 32.6346 106.039 32.6346 107.088C 32.6346 108.138 31.8169 108.988 30.8082 108.988C 29.7997 108.988 28.9823 108.138 28.9823 107.088C 28.9823 106.039 29.7997 105.189 30.8082 105.189ZM 272.884 158.874C 271.876 158.874 271.058 159.725 271.058 160.774C 271.058 161.823 271.876 162.673 272.884 162.673C 273.893 162.673 274.71 161.823 274.71 160.774C 274.71 159.725 273.893 158.874 272.884 158.874ZM 129.975 147.636C 129.975 148.685 130.793 149.536 131.801 149.536C 132.81 149.536 133.627 148.685 133.627 147.636C 133.627 146.587 132.81 145.737 131.801 145.737C 130.793 145.737 129.975 146.587 129.975 147.636ZM 191.812 93.1262C 191.812 94.1752 190.994 95.0257 189.985 95.0257C 188.977 95.0257 188.16 94.1752 188.16 93.1262C 188.16 92.0771 188.977 91.2265 189.985 91.2265C 190.994 91.2265 191.812 92.0771 191.812 93.1262ZM 191.812 147.636C 191.812 148.685 190.994 149.536 189.985 149.536C 188.977 149.536 188.16 148.685 188.16 147.636C 188.16 146.587 188.977 145.737 189.985 145.737C 190.994 145.737 191.812 146.587 191.812 147.636Z"/>
</defs>
</svg>
